{
  "countries": [
    "Florida",
    "Big South",
    "Keystone",
    "WNE",
    "Freedom",
    "TwinCity",
    "Beltway",
    "GBR",
    "Portland",
    "Houston",
    "XHS",
    "Mountain West",
    "California",
    "Seattle"
  ],
  "data": [
    {
      "call_recording_disclosure_data": [
        {
          "label": "Beltway",
          "y": 83
        },
        {
          "label": "Big South",
          "y": 100
        },
        {
          "label": "California",
          "y": 93
        },
        {
          "label": "Florida",
          "y": 93
        },
        {
          "label": "Freedom",
          "y": 93
        },
        {
          "label": "GBR",
          "y": 93
        },
        {
          "label": "Houston",
          "y": 88
        },
        {
          "label": "Keystone",
          "y": 98
        },
        {
          "label": "Mountain West",
          "y": 93
        },
        {
          "label": "Portland",
          "y": 95
        },
        {
          "label": "Seattle",
          "y": 98
        },
        {
          "label": "TwinCity",
          "y": 83
        },
        {
          "label": "WNE",
          "y": 98
        },
        {
          "label": "XHS",
          "y": 85
        }
      ]
    },
    {
      "call_opening_compliance_data": [
        {
          "label": "Beltway",
          "y": 74
        },
        {
          "label": "Big South",
          "y": 65
        },
        {
          "label": "California",
          "y": 78
        },
        {
          "label": "Florida",
          "y": 66
        },
        {
          "label": "Freedom",
          "y": 78
        },
        {
          "label": "GBR",
          "y": 79
        },
        {
          "label": "Houston",
          "y": 62
        },
        {
          "label": "Keystone",
          "y": 80
        },
        {
          "label": "Mountain West",
          "y": 78
        },
        {
          "label": "Portland",
          "y": 65
        },
        {
          "label": "Seattle",
          "y": 71
        },
        {
          "label": "TwinCity",
          "y": 72
        },
        {
          "label": "WNE",
          "y": 79
        },
        {
          "label": "XHS",
          "y": 74
        }
      ]
    },
    {
      "empathy_or_sympathy_data": [
        {
          "label": "Beltway",
          "y": 66
        },
        {
          "label": "Big South",
          "y": 93
        },
        {
          "label": "California",
          "y": 80
        },
        {
          "label": "Florida",
          "y": 76
        },
        {
          "label": "Freedom",
          "y": 85
        },
        {
          "label": "GBR",
          "y": 74
        },
        {
          "label": "Houston",
          "y": 77
        },
        {
          "label": "Keystone",
          "y": 75
        },
        {
          "label": "Mountain West",
          "y": 83
        },
        {
          "label": "Portland",
          "y": 78
        },
        {
          "label": "Seattle",
          "y": 91
        },
        {
          "label": "TwinCity",
          "y": 70
        },
        {
          "label": "WNE",
          "y": 74
        },
        {
          "label": "XHS",
          "y": 74
        }
      ]
    },
    {
      "other_lob_check_data": [
        {
          "label": "Beltway",
          "y": 30
        },
        {
          "label": "Big South",
          "y": 13
        },
        {
          "label": "California",
          "y": 30
        },
        {
          "label": "Florida",
          "y": 15
        },
        {
          "label": "Freedom",
          "y": 35
        },
        {
          "label": "GBR",
          "y": 15
        },
        {
          "label": "Houston",
          "y": 21
        },
        {
          "label": "Keystone",
          "y": 18
        },
        {
          "label": "Mountain West",
          "y": 20
        },
        {
          "label": "Portland",
          "y": 15
        },
        {
          "label": "Seattle",
          "y": 18
        },
        {
          "label": "TwinCity",
          "y": 16
        },
        {
          "label": "WNE",
          "y": 12
        },
        {
          "label": "XHS",
          "y": 3
        }
      ]
    },
    {
      "cancel_tech_visit_data": [
        {
          "label": "Beltway",
          "y": 35
        },
        {
          "label": "Big South",
          "y": 49
        },
        {
          "label": "California",
          "y": 40
        },
        {
          "label": "Florida",
          "y": 52
        },
        {
          "label": "Freedom",
          "y": 58
        },
        {
          "label": "GBR",
          "y": 49
        },
        {
          "label": "Houston",
          "y": 49
        },
        {
          "label": "Keystone",
          "y": 43
        },
        {
          "label": "Mountain West",
          "y": 45
        },
        {
          "label": "Portland",
          "y": 48
        },
        {
          "label": "Seattle",
          "y": 42
        },
        {
          "label": "TwinCity",
          "y": 47
        },
        {
          "label": "WNE",
          "y": 34
        },
        {
          "label": "XHS",
          "y": 53
        }
      ]
    },
    {
      "self_help_xfinity_my_account_app_data": [
        {
          "label": "Beltway",
          "y": 49
        },
        {
          "label": "Big South",
          "y": 42
        },
        {
          "label": "California",
          "y": 43
        },
        {
          "label": "Florida",
          "y": 42
        },
        {
          "label": "Freedom",
          "y": 45
        },
        {
          "label": "GBR",
          "y": 32
        },
        {
          "label": "Houston",
          "y": 24
        },
        {
          "label": "Keystone",
          "y": 38
        },
        {
          "label": "Mountain West",
          "y": 35
        },
        {
          "label": "Portland",
          "y": 43
        },
        {
          "label": "Seattle",
          "y": 37
        },
        {
          "label": "TwinCity",
          "y": 42
        },
        {
          "label": "WNE",
          "y": 39
        },
        {
          "label": "XHS",
          "y": 19
        }
      ]
    },
    {
      "call_closing_data": [
        {
          "label": "Beltway",
          "y": 69
        },
        {
          "label": "Big South",
          "y": 80
        },
        {
          "label": "California",
          "y": 78
        },
        {
          "label": "Florida",
          "y": 64
        },
        {
          "label": "Freedom",
          "y": 75
        },
        {
          "label": "GBR",
          "y": 69
        },
        {
          "label": "Houston",
          "y": 77
        },
        {
          "label": "Keystone",
          "y": 78
        },
        {
          "label": "Mountain West",
          "y": 80
        },
        {
          "label": "Portland",
          "y": 65
        },
        {
          "label": "Seattle",
          "y": 74
        },
        {
          "label": "TwinCity",
          "y": 70
        },
        {
          "label": "WNE",
          "y": 81
        },
        {
          "label": "XHS",
          "y": 40
        }
      ]
    },
    {
      "behavioural_sentiment_data": [
        {
          "behaviour": "positive",
          "y": 32
        },
        {
          "behaviour": "negative",
          "y": 12
        },
        {
          "behaviour": "neutral",
          "y": 56
        }
      ]
    }
  ]
}
